TrustZone_meh/data_power_analysis/oscilloscope_AS0x20/NewFile10.csv

X,CH1,CH2,CH3,Start,Increment,
Sequence,Volt,Volt,Volt,-5.000000e-04,5.000000e-06
0,4.80e-01,3.37e+00,3.37e+00,
1,4.40e-01,3.34e+00,3.35e+00,
2,4.80e-01,3.35e+00,3.37e+00,
3,4.40e-01,3.37e+00,3.35e+00,
4,4.80e-01,3.37e+00,3.37e+00,
5,4.40e-01,3.35e+00,3.35e+00,
6,4.40e-01,3.33e+00,3.33e+00,
7,5.20e-01,3.38e+00,3.38e+00,
8,4.80e-01,3.37e+00,3.37e+00,
9,4.40e-01,3.34e+00,3.35e+00,
10,4.80e-01,3.35e+00,3.35e+00,
11,4.40e-01,3.37e+00,3.37e+00,
12,4.80e-01,3.37e+00,3.35e+00,
13,4.40e-01,3.35e+00,3.37e+00,
14,4.40e-01,3.39e+00,3.39e+00,
15,5.20e-01,3.32e+00,3.32e+00,
16,4.80e-01,3.37e+00,3.37e+00,
17,4.40e-01,3.34e+00,3.35e+00,
18,4.40e-01,3.33e+00,3.33e+00,
19,5.20e-01,3.38e+00,3.38e+00,
20,4.40e-01,3.37e+00,3.37e+00,
21,4.80e-01,3.35e+00,3.35e+00,
22,4.80e-01,3.37e+00,3.37e+00,
23,4.40e-01,3.35e+00,3.35e+00,
24,4.80e-01,3.37e+00,3.35e+00,
25,4.40e-01,3.35e+00,3.37e+00,
26,4.80e-01,3.35e+00,3.37e+00,
27,4.40e-01,3.37e+00,3.35e+00,
28,4.40e-01,3.37e+00,3.33e+00,
29,5.20e-01,3.32e+00,3.38e+00,
30,4.80e-01,3.37e+00,3.37e+00,
31,4.40e-01,3.34e+00,3.35e+00,
32,4.80e-01,3.37e+00,3.37e+00,
33,4.40e-01,3.35e+00,3.35e+00,
34,4.80e-01,3.37e+00,3.37e+00,
35,4.40e-01,3.35e+00,3.34e+00,
36,4.80e-01,3.37e+00,3.37e+00,
37,4.40e-01,3.35e+00,3.35e+00,
38,4.40e-01,3.33e+00,3.38e+00,
39,5.20e-01,3.39e+00,3.34e+00,
40,4.40e-01,3.39e+00,3.38e+00,
41,5.20e-01,3.32e+00,3.32e+00,
42,4.80e-01,3.37e+00,3.37e+00,
43,4.40e-01,3.34e+00,3.35e+00,
44,4.80e-01,3.37e+00,3.35e+00,
45,4.40e-01,3.35e+00,3.37e+00,
46,4.40e-01,3.37e+00,3.37e+00,
47,4.80e-01,3.34e+00,3.35e+00,
48,4.80e-01,3.35e+00,3.35e+00,
49,4.40e-01,3.37e+00,3.37e+00,
50,4.40e-01,3.33e+00,3.33e+00,
51,5.20e-01,3.38e+00,3.38e+00,
52,4.80e-01,3.35e+00,3.37e+00,
53,4.40e-01,3.37e+00,3.35e+00,
54,4.40e-01,3.37e+00,3.37e+00,
55,4.80e-01,3.35e+00,3.35e+00,
56,4.40e-01,3.34e+00,3.35e+00,
57,4.80e-01,3.37e+00,3.37e+00,
58,4.80e-01,3.35e+00,3.35e+00,
59,4.40e-01,3.37e+00,3.37e+00,
60,4.40e-01,3.32e+00,3.35e+00,
61,5.20e-01,3.39e+00,3.38e+00,
62,4.80e-01,3.37e+00,3.36e+00,
63,4.40e-01,3.35e+00,3.35e+00,
64,4.40e-01,3.39e+00,3.38e+00,
65,5.20e-01,3.32e+00,3.33e+00,
66,4.80e-01,3.35e+00,3.35e+00,
67,4.40e-01,3.37e+00,3.37e+00,
68,4.40e-01,3.37e+00,3.37e+00,
69,5.20e-01,3.34e+00,3.35e+00,
70,4.80e-01,3.37e+00,3.37e+00,
71,4.40e-01,3.35e+00,3.35e+00,
72,4.40e-01,3.32e+00,3.38e+00,
73,5.20e-01,3.38e+00,3.33e+00,
74,4.80e-01,3.37e+00,3.35e+00,
75,4.40e-01,3.35e+00,3.37e+00,
76,4.40e-01,3.37e+00,3.36e+00,
77,4.80e-01,3.34e+00,3.34e+00,
78,4.80e-01,3.35e+00,3.35e+00,
79,4.40e-01,3.37e+00,3.37e+00,
80,4.40e-01,3.37e+00,3.37e+00,
81,4.80e-01,3.34e+00,3.35e+00,
82,4.40e-01,3.32e+00,3.33e+00,
83,5.20e-01,3.39e+00,3.39e+00,
84,4.80e-01,3.37e+00,3.37e+00,
85,4.40e-01,3.34e+00,3.35e+00,
86,4.80e-01,3.37e+00,3.37e+00,
87,4.40e-01,3.35e+00,3.35e+00,
88,4.40e-01,3.38e+00,3.34e+00,
89,5.20e-01,3.34e+00,3.38e+00,
90,4.40e-01,3.39e+00,3.39e+00,
91,5.20e-01,3.32e+00,3.33e+00,
92,4.80e-01,3.37e+00,3.37e+00,
93,4.40e-01,3.34e+00,3.35e+00,
94,4.40e-01,3.33e+00,3.33e+00,
95,5.20e-01,3.38e+00,3.38e+00,
96,4.40e-01,3.37e+00,3.37e+00,
97,5.20e-01,3.35e+00,3.35e+00,
98,5.20e-01,3.35e+00,3.35e+00,
99,8.00e-01,3.37e+00,3.37e+00,
100,7.60e-01,3.35e+00,3.37e+00,
101,3.40e+00,3.37e+00,3.35e+00,
102,3.40e+00,3.37e+00,3.37e+00,
103,3.32e+00,3.35e+00,3.35e+00,
104,3.32e+00,3.39e+00,3.33e+00,
105,3.40e+00,3.34e+00,3.38e+00,
106,3.36e+00,3.35e+00,3.35e+00,
107,3.32e+00,3.37e+00,3.37e+00,
108,3.32e+00,3.34e+00,3.37e+00,
109,3.36e+00,3.37e+00,3.35e+00,
110,3.32e+00,3.35e+00,3.35e+00,
111,3.36e+00,3.37e+00,3.37e+00,
112,3.32e+00,3.37e+00,3.37e+00,
113,3.36e+00,3.35e+00,3.35e+00,
114,3.32e+00,3.34e+00,3.34e+00,
115,3.36e+00,3.38e+00,3.37e+00,
116,3.28e+00,3.38e+00,3.38e+00,
117,3.40e+00,3.32e+00,3.33e+00,
118,3.36e+00,3.37e+00,3.37e+00,
119,3.32e+00,3.34e+00,3.34e+00,
120,3.36e+00,3.37e+00,3.35e+00,
121,3.32e+00,3.35e+00,3.37e+00,
122,3.32e+00,3.37e+00,3.37e+00,
123,3.36e+00,3.35e+00,3.35e+00,
124,3.32e+00,3.35e+00,3.35e+00,
125,3.36e+00,3.37e+00,3.37e+00,
126,3.36e+00,3.33e+00,3.34e+00,
127,3.28e+00,3.39e+00,3.39e+00,
128,3.36e+00,3.37e+00,3.37e+00,
129,3.32e+00,3.35e+00,3.35e+00,
130,3.32e+00,3.37e+00,3.37e+00,
131,3.36e+00,3.35e+00,3.35e+00,
132,3.36e+00,3.38e+00,3.36e+00,
133,3.32e+00,3.35e+00,3.38e+00,
134,3.36e+00,3.35e+00,3.35e+00,
135,3.28e+00,3.38e+00,3.38e+00,
136,3.36e+00,3.38e+00,3.38e+00,
137,3.32e+00,3.35e+00,3.35e+00,
138,3.36e+00,3.33e+00,3.33e+00,
139,3.28e+00,3.39e+00,3.39e+00,
140,3.28e+00,3.39e+00,3.39e+00,
141,3.36e+00,3.33e+00,3.33e+00,
142,3.36e+00,3.35e+00,3.38e+00,
143,3.28e+00,3.38e+00,3.35e+00,
144,3.36e+00,3.38e+00,3.38e+00,
145,3.28e+00,3.35e+00,3.35e+00,
146,3.36e+00,3.38e+00,3.36e+00,
147,3.28e+00,3.35e+00,3.38e+00,
148,3.36e+00,3.35e+00,3.35e+00,
149,3.28e+00,3.38e+00,3.38e+00,
150,3.28e+00,3.39e+00,3.34e+00,
151,3.36e+00,3.34e+00,3.39e+00,
152,3.36e+00,3.38e+00,3.38e+00,
153,3.28e+00,3.35e+00,3.35e+00,
154,3.36e+00,3.38e+00,3.38e+00,
155,3.28e+00,3.35e+00,3.35e+00,
156,3.36e+00,3.35e+00,3.38e+00,
157,3.28e+00,3.38e+00,3.35e+00,
158,3.28e+00,3.35e+00,3.35e+00,
159,3.36e+00,3.38e+00,3.37e+00,
160,3.36e+00,3.33e+00,3.34e+00,
161,3.28e+00,3.39e+00,3.39e+00,
162,3.36e+00,3.38e+00,3.38e+00,
163,3.28e+00,3.35e+00,3.35e+00,
164,3.36e+00,3.39e+00,3.39e+00,
165,3.28e+00,3.33e+00,3.33e+00,
166,3.28e+00,3.37e+00,3.35e+00,
167,3.36e+00,3.35e+00,3.37e+00,
168,3.36e+00,3.37e+00,3.37e+00,
169,3.28e+00,3.34e+00,3.35e+00,
170,3.36e+00,3.33e+00,3.35e+00,
171,3.28e+00,3.38e+00,3.38e+00,
172,3.28e+00,3.33e+00,3.34e+00,
173,3.36e+00,3.37e+00,3.37e+00,
174,3.36e+00,3.35e+00,3.35e+00,
175,3.28e+00,3.37e+00,3.37e+00,
176,3.28e+00,3.35e+00,3.35e+00,
177,3.36e+00,3.37e+00,3.37e+00,
178,3.36e+00,3.37e+00,3.37e+00,
179,3.28e+00,3.34e+00,3.35e+00,
180,3.28e+00,3.37e+00,3.35e+00,
181,3.36e+00,3.35e+00,3.37e+00,
182,3.28e+00,3.33e+00,3.35e+00,
183,3.36e+00,3.39e+00,3.38e+00,
184,3.28e+00,3.35e+00,3.35e+00,
185,3.36e+00,3.37e+00,3.37e+00,
186,3.36e+00,3.37e+00,3.37e+00,
187,3.28e+00,3.34e+00,3.35e+00,
188,3.28e+00,3.38e+00,3.34e+00,
189,3.36e+00,3.34e+00,3.38e+00,
190,3.36e+00,3.39e+00,3.38e+00,
191,3.28e+00,3.32e+00,3.32e+00,
192,3.28e+00,3.33e+00,3.35e+00,
193,3.36e+00,3.39e+00,3.39e+00,
194,3.36e+00,3.37e+00,3.37e+00,
195,3.28e+00,3.34e+00,3.35e+00,
196,3.28e+00,3.35e+00,3.35e+00,
197,3.36e+00,3.37e+00,3.37e+00,
198,3.36e+00,3.34e+00,3.37e+00,
199,3.28e+00,3.37e+00,3.35e+00,
200,3.36e+00,3.37e+00,3.37e+00,
201,3.28e+00,3.35e+00,3.35e+00,
202,3.28e+00,3.37e+00,3.38e+00,
203,3.36e+00,3.34e+00,3.34e+00,
204,3.28e+00,3.32e+00,3.33e+00,
205,3.36e+00,3.39e+00,3.38e+00,
206,3.28e+00,3.37e+00,3.37e+00,
207,3.36e+00,3.35e+00,3.35e+00,
208,3.28e+00,3.35e+00,3.35e+00,
209,3.36e+00,3.37e+00,3.37e+00,
210,3.36e+00,3.37e+00,3.35e+00,
211,3.28e+00,3.35e+00,3.37e+00,
212,3.36e+00,3.35e+00,3.35e+00,
213,3.28e+00,3.37e+00,3.37e+00,
214,3.28e+00,3.39e+00,3.39e+00,
215,3.36e+00,3.32e+00,3.33e+00,
216,3.28e+00,3.37e+00,3.37e+00,
217,3.36e+00,3.35e+00,3.35e+00,
218,3.28e+00,3.34e+00,3.37e+00,
219,3.36e+00,3.37e+00,3.35e+00,
220,3.28e+00,3.37e+00,3.35e+00,
221,3.36e+00,3.35e+00,3.37e+00,
222,3.36e+00,3.37e+00,3.37e+00,
223,3.28e+00,3.35e+00,3.35e+00,
224,3.28e+00,3.37e+00,3.37e+00,
225,3.36e+00,3.35e+00,3.35e+00,
226,3.36e+00,3.39e+00,3.33e+00,
227,3.28e+00,3.34e+00,3.37e+00,
228,3.36e+00,3.37e+00,3.37e+00,
229,3.28e+00,3.35e+00,3.35e+00,
230,3.36e+00,3.37e+00,3.37e+00,
231,3.28e+00,3.35e+00,3.34e+00,
232,3.28e+00,3.35e+00,3.35e+00,
233,3.36e+00,3.37e+00,3.37e+00,
234,3.36e+00,3.37e+00,3.37e+00,
235,3.28e+00,3.34e+00,3.35e+00,
236,3.36e+00,3.35e+00,3.33e+00,
237,3.28e+00,3.38e+00,3.38e+00,
238,3.28e+00,3.38e+00,3.38e+00,
239,3.36e+00,3.33e+00,3.34e+00,
240,3.28e+00,3.39e+00,3.38e+00,
241,3.36e+00,3.33e+00,3.33e+00,
242,3.28e+00,3.35e+00,3.37e+00,
243,3.36e+00,3.37e+00,3.35e+00,
244,3.28e+00,3.35e+00,3.37e+00,
245,3.36e+00,3.37e+00,3.35e+00,
246,3.36e+00,3.37e+00,3.35e+00,
247,3.28e+00,3.35e+00,3.37e+00,
248,3.28e+00,3.33e+00,3.33e+00,
249,3.36e+00,3.39e+00,3.38e+00,
250,3.36e+00,3.37e+00,3.37e+00,
251,3.28e+00,3.34e+00,3.35e+00,
252,3.36e+00,3.35e+00,3.37e+00,
253,3.28e+00,3.37e+00,3.35e+00,
254,3.36e+00,3.37e+00,3.37e+00,
255,3.28e+00,3.34e+00,3.35e+00,
256,3.28e+00,3.37e+00,3.37e+00,
257,3.36e+00,3.35e+00,3.35e+00,
258,3.36e+00,3.32e+00,3.33e+00,
259,3.28e+00,3.38e+00,3.38e+00,
260,3.28e+00,3.35e+00,3.35e+00,
261,3.36e+00,3.37e+00,3.37e+00,
262,3.28e+00,3.37e+00,3.34e+00,
263,3.36e+00,3.34e+00,3.37e+00,
264,3.36e+00,3.39e+00,3.39e+00,
265,3.28e+00,3.33e+00,3.33e+00,
266,3.36e+00,3.35e+00,3.37e+00,
267,3.28e+00,3.37e+00,3.35e+00,
268,3.36e+00,3.37e+00,3.35e+00,
269,3.28e+00,3.35e+00,3.37e+00,
270,3.36e+00,3.39e+00,3.33e+00,
271,3.28e+00,3.32e+00,3.39e+00,
272,3.28e+00,3.37e+00,3.35e+00,
273,3.36e+00,3.35e+00,3.37e+00,
274,3.36e+00,3.38e+00,3.38e+00,
275,3.28e+00,3.34e+00,3.35e+00,
276,3.36e+00,3.35e+00,3.37e+00,
277,3.28e+00,3.37e+00,3.35e+00,
278,3.28e+00,3.37e+00,3.38e+00,
279,3.36e+00,3.34e+00,3.35e+00,
280,3.36e+00,3.33e+00,3.33e+00,
281,3.28e+00,3.39e+00,3.38e+00,
282,3.36e+00,3.37e+00,3.36e+00,
283,3.28e+00,3.34e+00,3.35e+00,
284,3.36e+00,3.35e+00,3.35e+00,
285,3.28e+00,3.37e+00,3.37e+00,
286,3.36e+00,3.37e+00,3.37e+00,
287,3.28e+00,3.34e+00,3.35e+00,
288,3.36e+00,3.33e+00,3.34e+00,
289,3.32e+00,3.38e+00,3.38e+00,
290,3.36e+00,3.39e+00,3.39e+00,
291,3.28e+00,3.32e+00,3.33e+00,
292,3.36e+00,3.33e+00,3.38e+00,
293,3.28e+00,3.39e+00,3.34e+00,
294,3.36e+00,3.35e+00,3.37e+00,
295,3.28e+00,3.37e+00,3.35e+00,
296,3.36e+00,3.37e+00,3.37e+00,
297,3.32e+00,3.35e+00,3.35e+00,
298,3.36e+00,3.37e+00,3.37e+00,
299,3.28e+00,3.35e+00,3.35e+00,
300,3.36e+00,3.35e+00,3.35e+00,
301,3.28e+00,3.37e+00,3.37e+00,
302,3.36e+00,3.39e+00,3.35e+00,
303,3.28e+00,3.33e+00,3.39e+00,
304,3.36e+00,3.35e+00,3.37e+00,
305,3.28e+00,3.37e+00,3.35e+00,
306,3.36e+00,3.37e+00,3.37e+00,
307,3.32e+00,3.34e+00,3.35e+00,
308,3.36e+00,3.35e+00,3.35e+00,
309,3.28e+00,3.37e+00,3.37e+00,
310,3.28e+00,3.34e+00,3.34e+00,
311,3.36e+00,3.37e+00,3.37e+00,
312,3.36e+00,3.32e+00,3.35e+00,
313,3.28e+00,3.39e+00,3.39e+00,
314,3.36e+00,3.39e+00,3.39e+00,
315,3.28e+00,3.32e+00,3.32e+00,
316,3.36e+00,3.37e+00,3.37e+00,
317,3.28e+00,3.34e+00,3.35e+00,
318,3.32e+00,3.37e+00,3.35e+00,
319,3.36e+00,3.35e+00,3.37e+00,
320,3.36e+00,3.38e+00,3.38e+00,
321,3.28e+00,3.34e+00,3.34e+00,
322,3.36e+00,3.35e+00,3.37e+00,
323,3.32e+00,3.37e+00,3.35e+00,
324,3.36e+00,3.33e+00,3.33e+00,
325,3.28e+00,3.38e+00,3.38e+00,
326,3.36e+00,3.37e+00,3.37e+00,
327,3.32e+00,3.34e+00,3.35e+00,
328,3.36e+00,3.35e+00,3.37e+00,
329,3.28e+00,3.38e+00,3.35e+00,
330,3.36e+00,3.37e+00,3.35e+00,
331,3.32e+00,3.35e+00,3.37e+00,
332,3.36e+00,3.37e+00,3.37e+00,
333,3.28e+00,3.34e+00,3.35e+00,
334,3.36e+00,3.38e+00,3.33e+00,
335,3.28e+00,3.34e+00,3.38e+00,
336,3.36e+00,3.38e+00,3.38e+00,
337,3.28e+00,3.35e+00,3.35e+00,
338,3.36e+00,3.34e+00,3.38e+00,
339,3.28e+00,3.37e+00,3.34e+00,
340,3.28e+00,3.39e+00,3.39e+00,
341,3.36e+00,3.33e+00,3.33e+00,
342,3.32e+00,3.37e+00,3.35e+00,
343,3.36e+00,3.35e+00,3.37e+00,
344,3.36e+00,3.38e+00,3.37e+00,
345,3.32e+00,3.34e+00,3.35e+00,
346,3.36e+00,3.33e+00,3.34e+00,
347,3.28e+00,3.37e+00,3.38e+00,
348,3.36e+00,3.37e+00,3.37e+00,
349,3.32e+00,3.35e+00,3.35e+00,
350,3.32e+00,3.37e+00,3.36e+00,
351,3.36e+00,3.35e+00,3.38e+00,
352,3.36e+00,3.37e+00,3.38e+00,
353,3.32e+00,3.35e+00,3.35e+00,
354,3.36e+00,3.38e+00,3.38e+00,
355,3.32e+00,3.35e+00,3.35e+00,
356,3.36e+00,3.39e+00,3.34e+00,
357,3.28e+00,3.35e+00,3.38e+00,
358,3.32e+00,3.38e+00,3.38e+00,
359,3.36e+00,3.35e+00,3.35e+00,
360,3.36e+00,3.38e+00,3.38e+00,
361,3.32e+00,3.35e+00,3.35e+00,
362,3.36e+00,3.38e+00,3.38e+00,
363,3.32e+00,3.35e+00,3.35e+00,
364,3.36e+00,3.39e+00,3.39e+00,
365,3.28e+00,3.32e+00,3.33e+00,
366,3.32e+00,3.37e+00,3.37e+00,
367,3.36e+00,3.33e+00,3.34e+00,
368,3.28e+00,3.39e+00,3.39e+00,
369,3.36e+00,3.33e+00,3.34e+00,
370,3.36e+00,3.38e+00,3.35e+00,
371,3.32e+00,3.35e+00,3.38e+00,
372,3.36e+00,3.37e+00,3.36e+00,
373,3.32e+00,3.35e+00,3.37e+00,
374,3.36e+00,3.38e+00,3.38e+00,
375,3.32e+00,3.35e+00,3.35e+00,
376,3.32e+00,3.35e+00,3.35e+00,
377,3.36e+00,3.38e+00,3.38e+00,
378,3.36e+00,3.33e+00,3.33e+00,
379,3.28e+00,3.39e+00,3.39e+00,
380,3.36e+00,3.38e+00,3.38e+00,
381,3.32e+00,3.34e+00,3.35e+00,
382,3.32e+00,3.38e+00,3.37e+00,
383,3.36e+00,3.35e+00,3.35e+00,
384,3.36e+00,3.35e+00,3.35e+00,
385,3.32e+00,3.37e+00,3.37e+00,
386,3.32e+00,3.35e+00,3.37e+00,
387,3.36e+00,3.38e+00,3.35e+00,
388,3.36e+00,3.39e+00,3.34e+00,
389,3.28e+00,3.34e+00,3.38e+00,
390,3.36e+00,3.39e+00,3.39e+00,
391,3.28e+00,3.33e+00,3.33e+00,
392,3.36e+00,3.35e+00,3.37e+00,
393,3.32e+00,3.38e+00,3.35e+00,
394,3.32e+00,3.38e+00,3.37e+00,
395,3.36e+00,3.35e+00,3.35e+00,
396,3.36e+00,3.38e+00,3.37e+00,
397,3.32e+00,3.35e+00,3.35e+00,
398,3.36e+00,3.37e+00,3.37e+00,
399,3.32e+00,3.35e+00,3.35e+00,
400,3.36e+00,3.33e+00,3.34e+00,
401,3.28e+00,3.38e+00,3.38e+00,
402,3.32e+00,3.38e+00,3.37e+00,
403,3.36e+00,3.35e+00,3.35e+00,
404,3.36e+00,3.37e+00,3.37e+00,
405,3.32e+00,3.35e+00,3.35e+00,
406,3.36e+00,3.35e+00,3.35e+00,
407,3.32e+00,3.38e+00,3.38e+00,
408,3.36e+00,3.34e+00,3.34e+00,
409,3.28e+00,3.38e+00,3.37e+00,
410,3.36e+00,3.33e+00,3.33e+00,
411,3.32e+00,3.38e+00,3.38e+00,
412,3.32e+00,3.37e+00,3.37e+00,
413,3.36e+00,3.34e+00,3.35e+00,
414,3.36e+00,3.39e+00,3.38e+00,
415,3.28e+00,3.32e+00,3.32e+00,
416,3.36e+00,3.35e+00,3.35e+00,
417,3.32e+00,3.38e+00,3.37e+00,
418,3.32e+00,3.37e+00,3.37e+00,
419,3.36e+00,3.35e+00,3.35e+00,
420,3.32e+00,3.35e+00,3.37e+00,
421,3.36e+00,3.37e+00,3.35e+00,
422,3.36e+00,3.33e+00,3.35e+00,
423,3.32e+00,3.38e+00,3.38e+00,
424,3.36e+00,3.35e+00,3.35e+00,
425,3.32e+00,3.37e+00,3.37e+00,
426,3.36e+00,3.37e+00,3.35e+00,
427,3.32e+00,3.34e+00,3.37e+00,
428,3.36e+00,3.35e+00,3.37e+00,
429,3.32e+00,3.37e+00,3.35e+00,
430,3.32e+00,3.37e+00,3.35e+00,
431,3.36e+00,3.35e+00,3.37e+00,
432,3.32e+00,3.32e+00,3.35e+00,
433,3.36e+00,3.38e+00,3.38e+00,
434,3.36e+00,3.38e+00,3.35e+00,
435,3.32e+00,3.35e+00,3.37e+00,
436,3.32e+00,3.37e+00,3.35e+00,
437,3.36e+00,3.34e+00,3.37e+00,
438,3.36e+00,3.38e+00,3.34e+00,
439,3.28e+00,3.34e+00,3.38e+00,
440,3.36e+00,3.34e+00,3.39e+00,
441,3.32e+00,3.39e+00,3.33e+00,
442,3.32e+00,3.37e+00,3.35e+00,
443,3.36e+00,3.34e+00,3.37e+00,
444,3.36e+00,3.33e+00,3.33e+00,
445,3.28e+00,3.38e+00,3.38e+00,
446,3.32e+00,3.38e+00,3.34e+00,
447,3.36e+00,3.35e+00,3.38e+00,
448,3.32e+00,3.35e+00,3.35e+00,
449,3.36e+00,3.37e+00,3.37e+00,
450,3.32e+00,3.38e+00,3.37e+00,
451,3.36e+00,3.34e+00,3.35e+00,
452,3.32e+00,3.37e+00,3.37e+00,
453,3.36e+00,3.35e+00,3.35e+00,
454,3.36e+00,3.37e+00,3.38e+00,
455,3.28e+00,3.33e+00,3.33e+00,
456,3.32e+00,3.37e+00,3.35e+00,
457,3.36e+00,3.35e+00,3.37e+00,
458,3.36e+00,3.35e+00,3.35e+00,
459,3.32e+00,3.37e+00,3.37e+00,
460,3.36e+00,3.35e+00,3.35e+00,
461,3.32e+00,3.37e+00,3.37e+00,
462,3.36e+00,3.37e+00,3.37e+00,
463,3.32e+00,3.34e+00,3.35e+00,
464,3.36e+00,3.39e+00,3.38e+00,
465,3.28e+00,3.33e+00,3.33e+00,
466,3.36e+00,3.34e+00,3.33e+00,
467,3.28e+00,3.38e+00,3.38e+00,
468,3.32e+00,3.35e+00,3.35e+00,
469,3.36e+00,3.37e+00,3.37e+00,
470,3.32e+00,3.35e+00,3.35e+00,
471,3.36e+00,3.37e+00,3.37e+00,
472,3.36e+00,3.35e+00,3.35e+00,
473,3.32e+00,3.37e+00,3.37e+00,
474,3.36e+00,3.38e+00,3.35e+00,
475,3.32e+00,3.34e+00,3.38e+00,
476,3.36e+00,3.35e+00,3.33e+00,
477,3.32e+00,3.38e+00,3.38e+00,
478,3.36e+00,3.37e+00,3.37e+00,
479,3.32e+00,3.35e+00,3.35e+00,
480,3.36e+00,3.37e+00,3.37e+00,
481,3.32e+00,3.35e+00,3.35e+00,
482,3.36e+00,3.37e+00,3.35e+00,
483,3.32e+00,3.35e+00,3.37e+00,
484,3.32e+00,3.37e+00,3.37e+00,
485,3.36e+00,3.35e+00,3.35e+00,
486,3.32e+00,3.37e+00,3.35e+00,
487,3.36e+00,3.35e+00,3.37e+00,
488,3.36e+00,3.33e+00,3.33e+00,
489,3.32e+00,3.38e+00,3.38e+00,
490,3.36e+00,3.39e+00,3.39e+00,
491,3.28e+00,3.32e+00,3.33e+00,
492,3.36e+00,3.35e+00,3.36e+00,
493,3.32e+00,3.37e+00,3.35e+00,
494,3.32e+00,3.37e+00,3.37e+00,
495,3.36e+00,3.35e+00,3.35e+00,
496,3.36e+00,3.35e+00,3.35e+00,
497,3.32e+00,3.37e+00,3.37e+00,
498,3.36e+00,3.33e+00,3.33e+00,
499,3.28e+00,3.38e+00,3.38e+00,
500,3.32e+00,3.37e+00,3.35e+00,
501,3.36e+00,3.35e+00,3.37e+00,
502,3.32e+00,3.37e+00,3.37e+00,
503,3.36e+00,3.35e+00,3.35e+00,
504,3.32e+00,3.37e+00,3.35e+00,
505,3.36e+00,3.35e+00,3.37e+00,
506,3.32e+00,3.37e+00,3.37e+00,
507,3.36e+00,3.35e+00,3.35e+00,
508,3.32e+00,3.37e+00,3.37e+00,
509,3.36e+00,3.35e+00,3.35e+00,
510,3.36e+00,3.32e+00,3.33e+00,
511,3.28e+00,3.38e+00,3.38e+00,
512,3.36e+00,3.35e+00,3.35e+00,
513,3.32e+00,3.37e+00,3.37e+00,
514,3.36e+00,3.39e+00,3.39e+00,
515,3.28e+00,3.32e+00,3.33e+00,
516,3.36e+00,3.37e+00,3.37e+00,
517,3.32e+00,3.35e+00,3.35e+00,
518,3.36e+00,3.35e+00,3.35e+00,
519,3.32e+00,3.37e+00,3.37e+00,
520,3.36e+00,3.37e+00,3.37e+00,
521,3.32e+00,3.34e+00,3.33e+00,
522,3.32e+00,3.38e+00,3.38e+00,
523,3.36e+00,3.34e+00,3.34e+00,
524,3.36e+00,3.35e+00,3.37e+00,
525,3.32e+00,3.37e+00,3.35e+00,
526,3.36e+00,3.35e+00,3.37e+00,
527,3.32e+00,3.37e+00,3.35e+00,
528,3.32e+00,3.37e+00,3.37e+00,
529,3.36e+00,3.35e+00,3.35e+00,
530,3.32e+00,3.37e+00,3.37e+00,
531,3.36e+00,3.35e+00,3.35e+00,
532,3.32e+00,3.33e+00,3.38e+00,
533,3.36e+00,3.38e+00,3.34e+00,
534,3.32e+00,3.37e+00,3.37e+00,
535,3.36e+00,3.34e+00,3.35e+00,
536,3.32e+00,3.34e+00,3.37e+00,
537,3.36e+00,3.37e+00,3.35e+00,
538,3.32e+00,3.34e+00,3.34e+00,
539,3.40e+00,3.39e+00,3.39e+00,
540,3.36e+00,3.39e+00,3.33e+00,
541,3.28e+00,3.32e+00,3.37e+00,
542,3.36e+00,3.35e+00,3.35e+00,
543,3.32e+00,3.37e+00,3.37e+00,
544,3.36e+00,3.32e+00,3.38e+00,
545,3.28e+00,3.37e+00,3.35e+00,
546,3.32e+00,3.35e+00,3.37e+00,
547,3.36e+00,3.37e+00,3.35e+00,
548,3.36e+00,3.37e+00,3.37e+00,
549,3.32e+00,3.34e+00,3.35e+00,
550,3.36e+00,3.37e+00,3.36e+00,
551,3.32e+00,3.35e+00,3.37e+00,
552,3.32e+00,3.37e+00,3.37e+00,
553,3.36e+00,3.35e+00,3.35e+00,
554,3.36e+00,3.34e+00,3.33e+00,
555,3.28e+00,3.38e+00,3.37e+00,
556,3.32e+00,3.35e+00,3.37e+00,
557,3.36e+00,3.37e+00,3.35e+00,
558,3.32e+00,3.35e+00,3.35e+00,
559,3.36e+00,3.37e+00,3.37e+00,
560,3.36e+00,3.35e+00,3.35e+00,
561,3.32e+00,3.37e+00,3.37e+00,
562,3.32e+00,3.35e+00,3.35e+00,
563,3.36e+00,3.37e+00,3.37e+00,
564,3.28e+00,3.39e+00,3.39e+00,
565,3.40e+00,3.32e+00,3.33e+00,
566,3.32e+00,3.37e+00,3.35e+00,
567,3.36e+00,3.35e+00,3.37e+00,
568,3.32e+00,3.37e+00,3.37e+00,
569,3.36e+00,3.35e+00,3.35e+00,
570,3.36e+00,3.35e+00,3.37e+00,
571,3.32e+00,3.37e+00,3.35e+00,
572,3.32e+00,3.38e+00,3.37e+00,
573,3.36e+00,3.34e+00,3.35e+00,
574,3.36e+00,3.35e+00,3.37e+00,
575,3.32e+00,3.37e+00,3.35e+00,
576,3.36e+00,3.33e+00,3.33e+00,
577,3.32e+00,3.37e+00,3.38e+00,
578,3.36e+00,3.35e+00,3.37e+00,
579,3.32e+00,3.37e+00,3.35e+00,
580,3.36e+00,3.38e+00,3.37e+00,
581,3.32e+00,3.34e+00,3.35e+00,
582,3.32e+00,3.37e+00,3.35e+00,
583,3.36e+00,3.35e+00,3.37e+00,
584,3.36e+00,3.38e+00,3.37e+00,
585,3.32e+00,3.35e+00,3.35e+00,
586,3.36e+00,3.35e+00,3.33e+00,
587,3.32e+00,3.38e+00,3.38e+00,
588,3.32e+00,3.34e+00,3.38e+00,
589,3.40e+00,3.38e+00,3.34e+00,
590,3.40e+00,3.33e+00,3.39e+00,
591,3.32e+00,3.37e+00,3.33e+00,
592,3.36e+00,3.35e+00,3.38e+00,
593,3.32e+00,3.37e+00,3.35e+00,
594,3.32e+00,3.38e+00,3.38e+00,
595,3.36e+00,3.35e+00,3.35e+00,
596,3.32e+00,3.35e+00,3.38e+00,
597,3.40e+00,3.37e+00,3.35e+00,
598,3.36e+00,3.39e+00,3.33e+00,
599,3.32e+00,3.34e+00,3.38e+00,
600,3.36e+00,3.35e+00,3.35e+00,
601,3.32e+00,3.38e+00,3.38e+00,
602,3.32e+00,3.38e+00,3.38e+00,
603,3.36e+00,3.35e+00,3.35e+00,
604,3.36e+00,3.35e+00,3.37e+00,
605,3.32e+00,3.38e+00,3.35e+00,
606,3.36e+00,3.38e+00,3.38e+00,
607,3.32e+00,3.35e+00,3.35e+00,
608,3.32e+00,3.39e+00,3.38e+00,
609,3.40e+00,3.33e+00,3.34e+00,
610,3.36e+00,3.38e+00,3.38e+00,
611,3.32e+00,3.35e+00,3.35e+00,
612,3.32e+00,3.38e+00,3.38e+00,
613,3.36e+00,3.35e+00,3.35e+00,
614,3.32e+00,3.39e+00,3.39e+00,
615,3.40e+00,3.33e+00,3.33e+00,
616,3.36e+00,3.38e+00,3.37e+00,
617,3.32e+00,3.35e+00,3.35e+00,
618,3.36e+00,3.38e+00,3.35e+00,
619,3.32e+00,3.35e+00,3.38e+00,
620,3.32e+00,3.33e+00,3.34e+00,
621,3.40e+00,3.39e+00,3.38e+00,
622,3.32e+00,3.38e+00,3.35e+00,
623,3.36e+00,3.35e+00,3.37e+00,
624,3.32e+00,3.35e+00,3.35e+00,
